return {
  "items" : [ {
    "album" : {
      "album_type" : "ALBUM",
      "external_urls" : {
        "spotify" : "https://open.spotify.com/album/7sRNEe2FCkTYhrEimChdkC"
      },
      "href" : "https://api.spotify.com/v1/albums/7sRNEe2FCkTYhrEimChdkC",
      "id" : "7sRNEe2FCkTYhrEimChdkC",
      "images" : [ {
        "height" : 640,
        "url" : "https://i.scdn.co/image/7cf84c23c20efc87295dc7e3ad654f7df84a2b2b",
        "width" : 640
      }, {
        "height" : 300,
        "url" : "https://i.scdn.co/image/48ffa954349bac528df638628a20df6977932fa3",
        "width" : 300
      }, {
        "height" : 64,
        "url" : "https://i.scdn.co/image/cd71934a9c2d35d5b5934c94300f4732fafac622",
        "width" : 64
      } ],
      "name" : "The Beautiful Game",
      "type" : "album",
      "uri" : "spotify:album:7sRNEe2FCkTYhrEimChdkC"
    },
    "artists" : [ {
      "external_urls" : {
        "spotify" : "https://open.spotify.com/artist/7pXu47GoqSYRajmBCjxdD6"
      },
      "href" : "https://api.spotify.com/v1/artists/7pXu47GoqSYRajmBCjxdD6",
      "id" : "7pXu47GoqSYRajmBCjxdD6",
      "name" : "Vulfpeck",
      "type" : "artist",
      "uri" : "spotify:artist:7pXu47GoqSYRajmBCjxdD6"
    } ],
    "disc_number" : 1,
    "duration_ms" : 213302,
    "explicit" : false,
    "external_ids" : {
      "isrc" : "TCACS1623891"
    },
    "external_urls" : {
      "spotify" : "https://open.spotify.com/track/1oOD1pV43cV9sHg97aBdLs"
    },
    "href" : "https://api.spotify.com/v1/tracks/1oOD1pV43cV9sHg97aBdLs",
    "id" : "1oOD1pV43cV9sHg97aBdLs",
    "is_playable" : true,
    "name" : "Dean Town",
    "popularity" : 51,
    "preview_url" : "https://p.scdn.co/mp3-preview/bb5097bd49baed573ced30273b49079e42537357",
    "track_number" : 3,
    "type" : "track",
    "uri" : "spotify:track:1oOD1pV43cV9sHg97aBdLs"
  }, {
    "album" : {
      "album_type" : "ALBUM",
      "external_urls" : {
        "spotify" : "https://open.spotify.com/album/3DiHrdZ5z0AqW6JTpLAKxG"
      },
      "href" : "https://api.spotify.com/v1/albums/3DiHrdZ5z0AqW6JTpLAKxG",
      "id" : "3DiHrdZ5z0AqW6JTpLAKxG",
      "images" : [ {
        "height" : 640,
        "url" : "https://i.scdn.co/image/9e8d44921857d212674df6ff0b5353aa3fe14323",
        "width" : 640
      }, {
        "height" : 300,
        "url" : "https://i.scdn.co/image/2ac21444035779663082167f0e1f6fe5de1a6079",
        "width" : 300
      }, {
        "height" : 64,
        "url" : "https://i.scdn.co/image/af43e1fa447822b59ddf79155c83405432c1a74d",
        "width" : 64
      } ],
      "name" : "Fugue State",
      "type" : "album",
      "uri" : "spotify:album:3DiHrdZ5z0AqW6JTpLAKxG"
    },
    "artists" : [ {
      "external_urls" : {
        "spotify" : "https://open.spotify.com/artist/7pXu47GoqSYRajmBCjxdD6"
      },
      "href" : "https://api.spotify.com/v1/artists/7pXu47GoqSYRajmBCjxdD6",
      "id" : "7pXu47GoqSYRajmBCjxdD6",
      "name" : "Vulfpeck",
      "type" : "artist",
      "uri" : "spotify:artist:7pXu47GoqSYRajmBCjxdD6"
    } ],
    "disc_number" : 1,
    "duration_ms" : 199639,
    "explicit" : false,
    "external_ids" : {
      "isrc" : "TCABZ1466842"
    },
    "external_urls" : {
      "spotify" : "https://open.spotify.com/track/39rHfrVqCX6A55GF7uOZSC"
    },
    "href" : "https://api.spotify.com/v1/tracks/39rHfrVqCX6A55GF7uOZSC",
    "id" : "39rHfrVqCX6A55GF7uOZSC",
    "is_playable" : true,
    "name" : "1612",
    "popularity" : 53,
    "preview_url" : "https://p.scdn.co/mp3-preview/ac2e0daf53d6b58ec897468d67b0b59f7ea903b6",
    "track_number" : 2,
    "type" : "track",
    "uri" : "spotify:track:39rHfrVqCX6A55GF7uOZSC"
  }, {
    "album" : {
      "album_type" : "ALBUM",
      "external_urls" : {
        "spotify" : "https://open.spotify.com/album/7sRNEe2FCkTYhrEimChdkC"
      },
      "href" : "https://api.spotify.com/v1/albums/7sRNEe2FCkTYhrEimChdkC",
      "id" : "7sRNEe2FCkTYhrEimChdkC",
      "images" : [ {
        "height" : 640,
        "url" : "https://i.scdn.co/image/7cf84c23c20efc87295dc7e3ad654f7df84a2b2b",
        "width" : 640
      }, {
        "height" : 300,
        "url" : "https://i.scdn.co/image/48ffa954349bac528df638628a20df6977932fa3",
        "width" : 300
      }, {
        "height" : 64,
        "url" : "https://i.scdn.co/image/cd71934a9c2d35d5b5934c94300f4732fafac622",
        "width" : 64
      } ],
      "name" : "The Beautiful Game",
      "type" : "album",
      "uri" : "spotify:album:7sRNEe2FCkTYhrEimChdkC"
    },
    "artists" : [ {
      "external_urls" : {
        "spotify" : "https://open.spotify.com/artist/7pXu47GoqSYRajmBCjxdD6"
      },
      "href" : "https://api.spotify.com/v1/artists/7pXu47GoqSYRajmBCjxdD6",
      "id" : "7pXu47GoqSYRajmBCjxdD6",
      "name" : "Vulfpeck",
      "type" : "artist",
      "uri" : "spotify:artist:7pXu47GoqSYRajmBCjxdD6"
    } ],
    "disc_number" : 1,
    "duration_ms" : 190801,
    "explicit" : false,
    "external_ids" : {
      "isrc" : "TCACS1623890"
    },
    "external_urls" : {
      "spotify" : "https://open.spotify.com/track/1SHA4IJyiyNobDOrQzFFXy"
    },
    "href" : "https://api.spotify.com/v1/tracks/1SHA4IJyiyNobDOrQzFFXy",
    "id" : "1SHA4IJyiyNobDOrQzFFXy",
    "is_playable" : true,
    "name" : "Animal Spirits",
    "popularity" : 52,
    "preview_url" : "https://p.scdn.co/mp3-preview/29a5b5ddcbe54267a2711e42c662314e154a3a3f",
    "track_number" : 2,
    "type" : "track",
    "uri" : "spotify:track:1SHA4IJyiyNobDOrQzFFXy"
  }, {
    "album" : {
      "album_type" : "ALBUM",
      "external_urls" : {
        "spotify" : "https://open.spotify.com/album/0LyGgFrZFXpRKpgj664Xu7"
      },
      "href" : "https://api.spotify.com/v1/albums/0LyGgFrZFXpRKpgj664Xu7",
      "id" : "0LyGgFrZFXpRKpgj664Xu7",
      "images" : [ {
        "height" : 640,
        "url" : "https://i.scdn.co/image/9a622bd7b6d8cad7da2ef1a53fa9d0ccf4c73857",
        "width" : 640
      }, {
        "height" : 300,
        "url" : "https://i.scdn.co/image/7038a05232624db4e4cffea9d308e8d3633fe492",
        "width" : 300
      }, {
        "height" : 64,
        "url" : "https://i.scdn.co/image/a89038b09552eb254bd4ec5b4347fbb9239c12db",
        "width" : 64
      } ],
      "name" : "Thrill of the Arts",
      "type" : "album",
      "uri" : "spotify:album:0LyGgFrZFXpRKpgj664Xu7"
    },
    "artists" : [ {
      "external_urls" : {
        "spotify" : "https://open.spotify.com/artist/7pXu47GoqSYRajmBCjxdD6"
      },
      "href" : "https://api.spotify.com/v1/artists/7pXu47GoqSYRajmBCjxdD6",
      "id" : "7pXu47GoqSYRajmBCjxdD6",
      "name" : "Vulfpeck",
      "type" : "artist",
      "uri" : "spotify:artist:7pXu47GoqSYRajmBCjxdD6"
    } ],
    "disc_number" : 1,
    "duration_ms" : 181259,
    "explicit" : false,
    "external_ids" : {
      "isrc" : "TCACH1515840"
    },
    "external_urls" : {
      "spotify" : "https://open.spotify.com/track/1DrlLvlYd1FIjNavRm6NdX"
    },
    "href" : "https://api.spotify.com/v1/tracks/1DrlLvlYd1FIjNavRm6NdX",
    "id" : "1DrlLvlYd1FIjNavRm6NdX",
    "is_playable" : true,
    "name" : "Back Pocket",
    "popularity" : 57,
    "preview_url" : "https://p.scdn.co/mp3-preview/4ce3ae532039d65a5dffbc9e1b858f36d9d519e6",
    "track_number" : 2,
    "type" : "track",
    "uri" : "spotify:track:1DrlLvlYd1FIjNavRm6NdX"
  }, {
    "album" : {
      "album_type" : "ALBUM",
      "external_urls" : {
        "spotify" : "https://open.spotify.com/album/7sRNEe2FCkTYhrEimChdkC"
      },
      "href" : "https://api.spotify.com/v1/albums/7sRNEe2FCkTYhrEimChdkC",
      "id" : "7sRNEe2FCkTYhrEimChdkC",
      "images" : [ {
        "height" : 640,
        "url" : "https://i.scdn.co/image/7cf84c23c20efc87295dc7e3ad654f7df84a2b2b",
        "width" : 640
      }, {
        "height" : 300,
        "url" : "https://i.scdn.co/image/48ffa954349bac528df638628a20df6977932fa3",
        "width" : 300
      }, {
        "height" : 64,
        "url" : "https://i.scdn.co/image/cd71934a9c2d35d5b5934c94300f4732fafac622",
        "width" : 64
      } ],
      "name" : "The Beautiful Game",
      "type" : "album",
      "uri" : "spotify:album:7sRNEe2FCkTYhrEimChdkC"
    },
    "artists" : [ {
      "external_urls" : {
        "spotify" : "https://open.spotify.com/artist/7pXu47GoqSYRajmBCjxdD6"
      },
      "href" : "https://api.spotify.com/v1/artists/7pXu47GoqSYRajmBCjxdD6",
      "id" : "7pXu47GoqSYRajmBCjxdD6",
      "name" : "Vulfpeck",
      "type" : "artist",
      "uri" : "spotify:artist:7pXu47GoqSYRajmBCjxdD6"
    } ],
    "disc_number" : 1,
    "duration_ms" : 200177,
    "explicit" : false,
    "external_ids" : {
      "isrc" : "TCACS1623892"
    },
    "external_urls" : {
      "spotify" : "https://open.spotify.com/track/5vmFVIJV9XN1l01YsFuKL3"
    },
    "href" : "https://api.spotify.com/v1/tracks/5vmFVIJV9XN1l01YsFuKL3",
    "id" : "5vmFVIJV9XN1l01YsFuKL3",
    "is_playable" : true,
    "name" : "Conscious Club",
    "popularity" : 48,
    "preview_url" : "https://p.scdn.co/mp3-preview/681a4b6e627246ad30fdae1192b08dd3f1240037",
    "track_number" : 4,
    "type" : "track",
    "uri" : "spotify:track:5vmFVIJV9XN1l01YsFuKL3"
  }, {
    "album" : {
      "album_type" : "ALBUM",
      "external_urls" : {
        "spotify" : "https://open.spotify.com/album/7sRNEe2FCkTYhrEimChdkC"
      },
      "href" : "https://api.spotify.com/v1/albums/7sRNEe2FCkTYhrEimChdkC",
      "id" : "7sRNEe2FCkTYhrEimChdkC",
      "images" : [ {
        "height" : 640,
        "url" : "https://i.scdn.co/image/7cf84c23c20efc87295dc7e3ad654f7df84a2b2b",
        "width" : 640
      }, {
        "height" : 300,
        "url" : "https://i.scdn.co/image/48ffa954349bac528df638628a20df6977932fa3",
        "width" : 300
      }, {
        "height" : 64,
        "url" : "https://i.scdn.co/image/cd71934a9c2d35d5b5934c94300f4732fafac622",
        "width" : 64
      } ],
      "name" : "The Beautiful Game",
      "type" : "album",
      "uri" : "spotify:album:7sRNEe2FCkTYhrEimChdkC"
    },
    "artists" : [ {
      "external_urls" : {
        "spotify" : "https://open.spotify.com/artist/7pXu47GoqSYRajmBCjxdD6"
      },
      "href" : "https://api.spotify.com/v1/artists/7pXu47GoqSYRajmBCjxdD6",
      "id" : "7pXu47GoqSYRajmBCjxdD6",
      "name" : "Vulfpeck",
      "type" : "artist",
      "uri" : "spotify:artist:7pXu47GoqSYRajmBCjxdD6"
    } ],
    "disc_number" : 1,
    "duration_ms" : 189383,
    "explicit" : false,
    "external_ids" : {
      "isrc" : "TCACS1623894"
    },
    "external_urls" : {
      "spotify" : "https://open.spotify.com/track/6ZyuNGpj7FQDT9vklQlmJA"
    },
    "href" : "https://api.spotify.com/v1/tracks/6ZyuNGpj7FQDT9vklQlmJA",
    "id" : "6ZyuNGpj7FQDT9vklQlmJA",
    "is_playable" : true,
    "name" : "1 for 1, DiMaggio",
    "popularity" : 46,
    "preview_url" : "https://p.scdn.co/mp3-preview/0892199585dd833f24c4abe4cad788e8a3dcf309",
    "track_number" : 6,
    "type" : "track",
    "uri" : "spotify:track:6ZyuNGpj7FQDT9vklQlmJA"
  }, {
    "album" : {
      "album_type" : "ALBUM",
      "external_urls" : {
        "spotify" : "https://open.spotify.com/album/12zl1WmHPFCSyKYbL4vBZn"
      },
      "href" : "https://api.spotify.com/v1/albums/12zl1WmHPFCSyKYbL4vBZn",
      "id" : "12zl1WmHPFCSyKYbL4vBZn",
      "images" : [ {
        "height" : 640,
        "url" : "https://i.scdn.co/image/2fd2326c1f33ec8a2757b00f669331fc4ca51cdb",
        "width" : 640
      }, {
        "height" : 300,
        "url" : "https://i.scdn.co/image/8e438bbf3ffe81b47ffefa50a863a4dd3721990e",
        "width" : 300
      }, {
        "height" : 64,
        "url" : "https://i.scdn.co/image/b406d3fda9137b0c9194000952d51f765469122d",
        "width" : 64
      } ],
      "name" : "I like it when you sleep, for you are so beautiful yet so unaware of it",
      "type" : "album",
      "uri" : "spotify:album:12zl1WmHPFCSyKYbL4vBZn"
    },
    "artists" : [ {
      "external_urls" : {
        "spotify" : "https://open.spotify.com/artist/3mIj9lX2MWuHmhNCA7LSCW"
      },
      "href" : "https://api.spotify.com/v1/artists/3mIj9lX2MWuHmhNCA7LSCW",
      "id" : "3mIj9lX2MWuHmhNCA7LSCW",
      "name" : "The 1975",
      "type" : "artist",
      "uri" : "spotify:artist:3mIj9lX2MWuHmhNCA7LSCW"
    } ],
    "disc_number" : 1,
    "duration_ms" : 293076,
    "explicit" : false,
    "external_ids" : {
      "isrc" : "GBK3W1500431"
    },
    "external_urls" : {
      "spotify" : "https://open.spotify.com/track/6C88rHxXBlpcgtBY3HAF0E"
    },
    "href" : "https://api.spotify.com/v1/tracks/6C88rHxXBlpcgtBY3HAF0E",
    "id" : "6C88rHxXBlpcgtBY3HAF0E",
    "is_playable" : true,
    "name" : "Paris",
    "popularity" : 57,
    "preview_url" : "https://p.scdn.co/mp3-preview/0f3c3d806aa563d02bafe635b45a5cc08d16384f",
    "track_number" : 15,
    "type" : "track",
    "uri" : "spotify:track:6C88rHxXBlpcgtBY3HAF0E"
  }, {
    "album" : {
      "album_type" : "ALBUM",
      "external_urls" : {
        "spotify" : "https://open.spotify.com/album/66lLDYWrrbm8tsrBGNYC5E"
      },
      "href" : "https://api.spotify.com/v1/albums/66lLDYWrrbm8tsrBGNYC5E",
      "id" : "66lLDYWrrbm8tsrBGNYC5E",
      "images" : [ {
        "height" : 640,
        "url" : "https://i.scdn.co/image/f3b75a95f33c6297bf6d2e3345815d150d91d7e1",
        "width" : 640
      }, {
        "height" : 300,
        "url" : "https://i.scdn.co/image/62fd0d8c3837d289a5787bcfff70abafa80d95ea",
        "width" : 300
      }, {
        "height" : 64,
        "url" : "https://i.scdn.co/image/0d4abb2ac0034913fbcfaf47eab215d51572b8ab",
        "width" : 64
      } ],
      "name" : "My First Car",
      "type" : "album",
      "uri" : "spotify:album:66lLDYWrrbm8tsrBGNYC5E"
    },
    "artists" : [ {
      "external_urls" : {
        "spotify" : "https://open.spotify.com/artist/7pXu47GoqSYRajmBCjxdD6"
      },
      "href" : "https://api.spotify.com/v1/artists/7pXu47GoqSYRajmBCjxdD6",
      "id" : "7pXu47GoqSYRajmBCjxdD6",
      "name" : "Vulfpeck",
      "type" : "artist",
      "uri" : "spotify:artist:7pXu47GoqSYRajmBCjxdD6"
    } ],
    "disc_number" : 1,
    "duration_ms" : 230676,
    "explicit" : false,
    "external_ids" : {
      "isrc" : "TCACA1490363"
    },
    "external_urls" : {
      "spotify" : "https://open.spotify.com/track/48wH8bAxvBJO2l14GmNLz7"
    },
    "href" : "https://api.spotify.com/v1/tracks/48wH8bAxvBJO2l14GmNLz7",
    "id" : "48wH8bAxvBJO2l14GmNLz7",
    "is_playable" : true,
    "name" : "Wait for the Moment",
    "popularity" : 55,
    "preview_url" : "https://p.scdn.co/mp3-preview/cf3243369a3ace437df5e681220f5af4c7763c68",
    "track_number" : 1,
    "type" : "track",
    "uri" : "spotify:track:48wH8bAxvBJO2l14GmNLz7"
  }, {
    "album" : {
      "album_type" : "SINGLE",
      "external_urls" : {
        "spotify" : "https://open.spotify.com/album/4rH2TMbLLCRDLPDqBB3XzK"
      },
      "href" : "https://api.spotify.com/v1/albums/4rH2TMbLLCRDLPDqBB3XzK",
      "id" : "4rH2TMbLLCRDLPDqBB3XzK",
      "images" : [ {
        "height" : 640,
        "url" : "https://i.scdn.co/image/d1178c1b19e04ef9e5b9cc5e3f7df1393867ce15",
        "width" : 640
      }, {
        "height" : 300,
        "url" : "https://i.scdn.co/image/c6688abd02431b7b5c5d57513d9e52181e1ee624",
        "width" : 300
      }, {
        "height" : 64,
        "url" : "https://i.scdn.co/image/ef90a740a4b47dec98da8bb65b55947d4bc6fab4",
        "width" : 64
      } ],
      "name" : "Is This Love (Remix)",
      "type" : "album",
      "uri" : "spotify:album:4rH2TMbLLCRDLPDqBB3XzK"
    },
    "artists" : [ {
      "external_urls" : {
        "spotify" : "https://open.spotify.com/artist/2QsynagSdAqZj3U9HgDzjD"
      },
      "href" : "https://api.spotify.com/v1/artists/2QsynagSdAqZj3U9HgDzjD",
      "id" : "2QsynagSdAqZj3U9HgDzjD",
      "name" : "Bob Marley & The Wailers",
      "type" : "artist",
      "uri" : "spotify:artist:2QsynagSdAqZj3U9HgDzjD"
    }, {
      "external_urls" : {
        "spotify" : "https://open.spotify.com/artist/2QlwnS23KrBeshXFyK5U6M"
      },
      "href" : "https://api.spotify.com/v1/artists/2QlwnS23KrBeshXFyK5U6M",
      "id" : "2QlwnS23KrBeshXFyK5U6M",
      "name" : "LVNDSCAPE",
      "type" : "artist",
      "uri" : "spotify:artist:2QlwnS23KrBeshXFyK5U6M"
    }, {
      "external_urls" : {
        "spotify" : "https://open.spotify.com/artist/65NscqgsoMPqBtoLbkP3jD"
      },
      "href" : "https://api.spotify.com/v1/artists/65NscqgsoMPqBtoLbkP3jD",
      "id" : "65NscqgsoMPqBtoLbkP3jD",
      "name" : "Bolier",
      "type" : "artist",
      "uri" : "spotify:artist:65NscqgsoMPqBtoLbkP3jD"
    } ],
    "disc_number" : 1,
    "duration_ms" : 199655,
    "explicit" : false,
    "external_ids" : {
      "isrc" : "USUM71604762"
    },
    "external_urls" : {
      "spotify" : "https://open.spotify.com/track/1w5sLDYzYAGI0AkLc6FPlO"
    },
    "href" : "https://api.spotify.com/v1/tracks/1w5sLDYzYAGI0AkLc6FPlO",
    "id" : "1w5sLDYzYAGI0AkLc6FPlO",
    "is_playable" : true,
    "name" : "Is This Love - Remix",
    "popularity" : 71,
    "preview_url" : "https://p.scdn.co/mp3-preview/dbddbb2bca4eb07d7818d59924c0292c5d0cd6ad",
    "track_number" : 1,
    "type" : "track",
    "uri" : "spotify:track:1w5sLDYzYAGI0AkLc6FPlO"
  }, {
    "album" : {
      "album_type" : "ALBUM",
      "external_urls" : {
        "spotify" : "https://open.spotify.com/album/0LyGgFrZFXpRKpgj664Xu7"
      },
      "href" : "https://api.spotify.com/v1/albums/0LyGgFrZFXpRKpgj664Xu7",
      "id" : "0LyGgFrZFXpRKpgj664Xu7",
      "images" : [ {
        "height" : 640,
        "url" : "https://i.scdn.co/image/9a622bd7b6d8cad7da2ef1a53fa9d0ccf4c73857",
        "width" : 640
      }, {
        "height" : 300,
        "url" : "https://i.scdn.co/image/7038a05232624db4e4cffea9d308e8d3633fe492",
        "width" : 300
      }, {
        "height" : 64,
        "url" : "https://i.scdn.co/image/a89038b09552eb254bd4ec5b4347fbb9239c12db",
        "width" : 64
      } ],
      "name" : "Thrill of the Arts",
      "type" : "album",
      "uri" : "spotify:album:0LyGgFrZFXpRKpgj664Xu7"
    },
    "artists" : [ {
      "external_urls" : {
        "spotify" : "https://open.spotify.com/artist/7pXu47GoqSYRajmBCjxdD6"
      },
      "href" : "https://api.spotify.com/v1/artists/7pXu47GoqSYRajmBCjxdD6",
      "id" : "7pXu47GoqSYRajmBCjxdD6",
      "name" : "Vulfpeck",
      "type" : "artist",
      "uri" : "spotify:artist:7pXu47GoqSYRajmBCjxdD6"
    } ],
    "disc_number" : 1,
    "duration_ms" : 269335,
    "explicit" : false,
    "external_ids" : {
      "isrc" : "TCACH1515847"
    },
    "external_urls" : {
      "spotify" : "https://open.spotify.com/track/7a00cQDulg05uPkHuFoQiS"
    },
    "href" : "https://api.spotify.com/v1/tracks/7a00cQDulg05uPkHuFoQiS",
    "id" : "7a00cQDulg05uPkHuFoQiS",
    "is_playable" : true,
    "name" : "Smile Meditation",
    "popularity" : 42,
    "preview_url" : "https://p.scdn.co/mp3-preview/3b9af6c3d310947964605a0a83c50b647ad3bbc2",
    "track_number" : 9,
    "type" : "track",
    "uri" : "spotify:track:7a00cQDulg05uPkHuFoQiS"
  }, {
    "album" : {
      "album_type" : "ALBUM",
      "external_urls" : {
        "spotify" : "https://open.spotify.com/album/2ytxqdwQ0Hn9JeQmcIWHuh"
      },
      "href" : "https://api.spotify.com/v1/albums/2ytxqdwQ0Hn9JeQmcIWHuh",
      "id" : "2ytxqdwQ0Hn9JeQmcIWHuh",
      "images" : [ {
        "height" : 640,
        "url" : "https://i.scdn.co/image/5c3a5623832cbf563b040f8ee43f1587555a76d0",
        "width" : 640
      }, {
        "height" : 300,
        "url" : "https://i.scdn.co/image/6866f6f1196c4c9b4c6999aaf89a884d564f5010",
        "width" : 300
      }, {
        "height" : 64,
        "url" : "https://i.scdn.co/image/60bfae69dbd428f43a4b601609ca663adf377c31",
        "width" : 64
      } ],
      "name" : "Built on Glass",
      "type" : "album",
      "uri" : "spotify:album:2ytxqdwQ0Hn9JeQmcIWHuh"
    },
    "artists" : [ {
      "external_urls" : {
        "spotify" : "https://open.spotify.com/artist/2Q0MyH5YMI5HPQjFjlq5g3"
      },
      "href" : "https://api.spotify.com/v1/artists/2Q0MyH5YMI5HPQjFjlq5g3",
      "id" : "2Q0MyH5YMI5HPQjFjlq5g3",
      "name" : "Chet Faker",
      "type" : "artist",
      "uri" : "spotify:artist:2Q0MyH5YMI5HPQjFjlq5g3"
    } ],
    "disc_number" : 1,
    "duration_ms" : 285255,
    "explicit" : false,
    "external_ids" : {
      "isrc" : "AUFF81300507"
    },
    "external_urls" : {
      "spotify" : "https://open.spotify.com/track/1g7zNtcGrWt8gcBRwDQEkf"
    },
    "href" : "https://api.spotify.com/v1/tracks/1g7zNtcGrWt8gcBRwDQEkf",
    "id" : "1g7zNtcGrWt8gcBRwDQEkf",
    "is_playable" : true,
    "name" : "Gold",
    "popularity" : 61,
    "preview_url" : "https://p.scdn.co/mp3-preview/2e21fb03d13ba0a0e3320bec1d8291a3182c1e7d",
    "track_number" : 5,
    "type" : "track",
    "uri" : "spotify:track:1g7zNtcGrWt8gcBRwDQEkf"
  }, {
    "album" : {
      "album_type" : "ALBUM",
      "external_urls" : {
        "spotify" : "https://open.spotify.com/album/12zl1WmHPFCSyKYbL4vBZn"
      },
      "href" : "https://api.spotify.com/v1/albums/12zl1WmHPFCSyKYbL4vBZn",
      "id" : "12zl1WmHPFCSyKYbL4vBZn",
      "images" : [ {
        "height" : 640,
        "url" : "https://i.scdn.co/image/2fd2326c1f33ec8a2757b00f669331fc4ca51cdb",
        "width" : 640
      }, {
        "height" : 300,
        "url" : "https://i.scdn.co/image/8e438bbf3ffe81b47ffefa50a863a4dd3721990e",
        "width" : 300
      }, {
        "height" : 64,
        "url" : "https://i.scdn.co/image/b406d3fda9137b0c9194000952d51f765469122d",
        "width" : 64
      } ],
      "name" : "I like it when you sleep, for you are so beautiful yet so unaware of it",
      "type" : "album",
      "uri" : "spotify:album:12zl1WmHPFCSyKYbL4vBZn"
    },
    "artists" : [ {
      "external_urls" : {
        "spotify" : "https://open.spotify.com/artist/3mIj9lX2MWuHmhNCA7LSCW"
      },
      "href" : "https://api.spotify.com/v1/artists/3mIj9lX2MWuHmhNCA7LSCW",
      "id" : "3mIj9lX2MWuHmhNCA7LSCW",
      "name" : "The 1975",
      "type" : "artist",
      "uri" : "spotify:artist:3mIj9lX2MWuHmhNCA7LSCW"
    } ],
    "disc_number" : 1,
    "duration_ms" : 380320,
    "explicit" : false,
    "external_ids" : {
      "isrc" : "GBK3W1500422"
    },
    "external_urls" : {
      "spotify" : "https://open.spotify.com/track/1IwdvZ3djfD1SfhexKUmXk"
    },
    "href" : "https://api.spotify.com/v1/tracks/1IwdvZ3djfD1SfhexKUmXk",
    "id" : "1IwdvZ3djfD1SfhexKUmXk",
    "is_playable" : true,
    "name" : "If I Believe You",
    "popularity" : 58,
    "preview_url" : "https://p.scdn.co/mp3-preview/6bd5d3c245c096f8e9a02c67f1225f1fbdbf6595",
    "track_number" : 6,
    "type" : "track",
    "uri" : "spotify:track:1IwdvZ3djfD1SfhexKUmXk"
  }, {
    "album" : {
      "album_type" : "ALBUM",
      "external_urls" : {
        "spotify" : "https://open.spotify.com/album/0LyGgFrZFXpRKpgj664Xu7"
      },
      "href" : "https://api.spotify.com/v1/albums/0LyGgFrZFXpRKpgj664Xu7",
      "id" : "0LyGgFrZFXpRKpgj664Xu7",
      "images" : [ {
        "height" : 640,
        "url" : "https://i.scdn.co/image/9a622bd7b6d8cad7da2ef1a53fa9d0ccf4c73857",
        "width" : 640
      }, {
        "height" : 300,
        "url" : "https://i.scdn.co/image/7038a05232624db4e4cffea9d308e8d3633fe492",
        "width" : 300
      }, {
        "height" : 64,
        "url" : "https://i.scdn.co/image/a89038b09552eb254bd4ec5b4347fbb9239c12db",
        "width" : 64
      } ],
      "name" : "Thrill of the Arts",
      "type" : "album",
      "uri" : "spotify:album:0LyGgFrZFXpRKpgj664Xu7"
    },
    "artists" : [ {
      "external_urls" : {
        "spotify" : "https://open.spotify.com/artist/7pXu47GoqSYRajmBCjxdD6"
      },
      "href" : "https://api.spotify.com/v1/artists/7pXu47GoqSYRajmBCjxdD6",
      "id" : "7pXu47GoqSYRajmBCjxdD6",
      "name" : "Vulfpeck",
      "type" : "artist",
      "uri" : "spotify:artist:7pXu47GoqSYRajmBCjxdD6"
    } ],
    "disc_number" : 1,
    "duration_ms" : 130770,
    "explicit" : false,
    "external_ids" : {
      "isrc" : "TCACH1515841"
    },
    "external_urls" : {
      "spotify" : "https://open.spotify.com/track/2KRQR1VK6OoJxpwVzwDv72"
    },
    "href" : "https://api.spotify.com/v1/tracks/2KRQR1VK6OoJxpwVzwDv72",
    "id" : "2KRQR1VK6OoJxpwVzwDv72",
    "is_playable" : true,
    "name" : "Funky Duck",
    "popularity" : 47,
    "preview_url" : "https://p.scdn.co/mp3-preview/2bf3a039c6dba49784b37a842a73efff7d2ea60c",
    "track_number" : 3,
    "type" : "track",
    "uri" : "spotify:track:2KRQR1VK6OoJxpwVzwDv72"
  }, {
    "album" : {
      "album_type" : "ALBUM",
      "external_urls" : {
        "spotify" : "https://open.spotify.com/album/5a3LqvNt2nv1B4aRKXmgOV"
      },
      "href" : "https://api.spotify.com/v1/albums/5a3LqvNt2nv1B4aRKXmgOV",
      "id" : "5a3LqvNt2nv1B4aRKXmgOV",
      "images" : [ {
        "height" : 640,
        "url" : "https://i.scdn.co/image/f8aebe68df82729ac2d4c63fd2749ceaa316cff3",
        "width" : 640
      }, {
        "height" : 300,
        "url" : "https://i.scdn.co/image/4955d3faa1512e333807124402d7bd29970743ff",
        "width" : 300
      }, {
        "height" : 64,
        "url" : "https://i.scdn.co/image/ef1545a97980c85967923d6e8527cccb5a5546fc",
        "width" : 64
      } ],
      "name" : "Revolution Radio",
      "type" : "album",
      "uri" : "spotify:album:5a3LqvNt2nv1B4aRKXmgOV"
    },
    "artists" : [ {
      "external_urls" : {
        "spotify" : "https://open.spotify.com/artist/7oPftvlwr6VrsViSDV7fJY"
      },
      "href" : "https://api.spotify.com/v1/artists/7oPftvlwr6VrsViSDV7fJY",
      "id" : "7oPftvlwr6VrsViSDV7fJY",
      "name" : "Green Day",
      "type" : "artist",
      "uri" : "spotify:artist:7oPftvlwr6VrsViSDV7fJY"
    } ],
    "disc_number" : 1,
    "duration_ms" : 205440,
    "explicit" : false,
    "external_ids" : {
      "isrc" : "USRE11600427"
    },
    "external_urls" : {
      "spotify" : "https://open.spotify.com/track/278Ao6KQDxWGGszv24uvhI"
    },
    "href" : "https://api.spotify.com/v1/tracks/278Ao6KQDxWGGszv24uvhI",
    "id" : "278Ao6KQDxWGGszv24uvhI",
    "is_playable" : true,
    "linked_from" : {
      "external_urls" : {
        "spotify" : "https://open.spotify.com/track/0Z2wvNROelCrTqUM28RLYt"
      },
      "href" : "https://api.spotify.com/v1/tracks/0Z2wvNROelCrTqUM28RLYt",
      "id" : "0Z2wvNROelCrTqUM28RLYt",
      "type" : "track",
      "uri" : "spotify:track:0Z2wvNROelCrTqUM28RLYt"
    },
    "name" : "Bang Bang",
    "popularity" : 67,
    "preview_url" : "https://p.scdn.co/mp3-preview/6a7cfdda2f1f3d0963a05217d97ead5a68aee80d",
    "track_number" : 2,
    "type" : "track",
    "uri" : "spotify:track:278Ao6KQDxWGGszv24uvhI"
  }, {
    "album" : {
      "album_type" : "ALBUM",
      "external_urls" : {
        "spotify" : "https://open.spotify.com/album/1nojrwBYMmq5jY1gJYtywa"
      },
      "href" : "https://api.spotify.com/v1/albums/1nojrwBYMmq5jY1gJYtywa",
      "id" : "1nojrwBYMmq5jY1gJYtywa",
      "images" : [ {
        "height" : 640,
        "url" : "https://i.scdn.co/image/d9332d29d388c20f7d0a46e4ef6724bc71530400",
        "width" : 640
      }, {
        "height" : 300,
        "url" : "https://i.scdn.co/image/1dc5f4f0d67ba30285d1507a9cbd477d112e016e",
        "width" : 300
      }, {
        "height" : 64,
        "url" : "https://i.scdn.co/image/491b0aa8ece8cc1050bb5b1712507ded518df8a3",
        "width" : 64
      } ],
      "name" : "Version Digital Edition",
      "type" : "album",
      "uri" : "spotify:album:1nojrwBYMmq5jY1gJYtywa"
    },
    "artists" : [ {
      "external_urls" : {
        "spotify" : "https://open.spotify.com/artist/3hv9jJF3adDNsBSIQDqcjp"
      },
      "href" : "https://api.spotify.com/v1/artists/3hv9jJF3adDNsBSIQDqcjp",
      "id" : "3hv9jJF3adDNsBSIQDqcjp",
      "name" : "Mark Ronson",
      "type" : "artist",
      "uri" : "spotify:artist:3hv9jJF3adDNsBSIQDqcjp"
    }, {
      "external_urls" : {
        "spotify" : "https://open.spotify.com/artist/6Q192DXotxtaysaqNPy5yR"
      },
      "href" : "https://api.spotify.com/v1/artists/6Q192DXotxtaysaqNPy5yR",
      "id" : "6Q192DXotxtaysaqNPy5yR",
      "name" : "Amy Winehouse",
      "type" : "artist",
      "uri" : "spotify:artist:6Q192DXotxtaysaqNPy5yR"
    } ],
    "disc_number" : 1,
    "duration_ms" : 219413,
    "explicit" : false,
    "external_ids" : {
      "isrc" : "GBARL0700173"
    },
    "external_urls" : {
      "spotify" : "https://open.spotify.com/track/1UxisKljksGRNwJBPp4Tri"
    },
    "href" : "https://api.spotify.com/v1/tracks/1UxisKljksGRNwJBPp4Tri",
    "id" : "1UxisKljksGRNwJBPp4Tri",
    "is_playable" : true,
    "name" : "Valerie - Version Revisited",
    "popularity" : 49,
    "preview_url" : "https://p.scdn.co/mp3-preview/87bdb163da1a724e78745a8b52c708a72696817f",
    "track_number" : 5,
    "type" : "track",
    "uri" : "spotify:track:1UxisKljksGRNwJBPp4Tri"
  } ],
  "total" : 50,
  "limit" : 15,
  "offset" : 0,
  "previous" : null,
  "href" : "https://api.spotify.com/v1/me/top/tracks?limit=15&offset=0",
  "next" : "https://api.spotify.com/v1/me/top/tracks?limit=15&offset=15"
};
