{
  "items" : [ {
    "external_urls" : {
      "spotify" : "https://open.spotify.com/artist/5ictveRyhWRs8Gt8Dvt1hS"
    },
    "followers" : {
      "href" : null,
      "total" : 171511
    },
    "genres" : [ "alternative emo", "emo", "indie folk", "indie rock", "pop punk" ],
    "href" : "https://api.spotify.com/v1/artists/5ictveRyhWRs8Gt8Dvt1hS",
    "id" : "5ictveRyhWRs8Gt8Dvt1hS",
    "images" : [ {
      "height" : 1000,
      "url" : "https://i.scdn.co/image/f45cbdda7d448821d05cf8ff483e9bb315e4966b",
      "width" : 1000
    }, {
      "height" : 640,
      "url" : "https://i.scdn.co/image/0769bfaae75178a542f3f244446607257c76e5a0",
      "width" : 640
    }, {
      "height" : 200,
      "url" : "https://i.scdn.co/image/44eb84eacb8c76d33436d2986e8130c23785d4eb",
      "width" : 200
    }, {
      "height" : 64,
      "url" : "https://i.scdn.co/image/066c96a0af5ec32209bd5b18bb0fd3b4c7898453",
      "width" : 64
    } ],
    "name" : "The Front Bottoms",
    "popularity" : 66,
    "type" : "artist",
    "uri" : "spotify:artist:5ictveRyhWRs8Gt8Dvt1hS"
  }, {
    "external_urls" : {
      "spotify" : "https://open.spotify.com/artist/4OOlG5eBXSkSAAEeKjJb5Y"
    },
    "followers" : {
      "href" : null,
      "total" : 177289
    },
    "genres" : [ "alternative rock", "anti-folk", "chamber pop", "folk-pop", "freak folk", "garage rock", "indie folk", "indie pop", "indie rock", "neo-psychedelic", "noise pop" ],
    "href" : "https://api.spotify.com/v1/artists/4OOlG5eBXSkSAAEeKjJb5Y",
    "id" : "4OOlG5eBXSkSAAEeKjJb5Y",
    "images" : [ {
      "height" : 682,
      "url" : "https://i.scdn.co/image/46d9b9f8055088ab1e598e94054d6a78e7269dcc",
      "width" : 682
    }, {
      "height" : 640,
      "url" : "https://i.scdn.co/image/4430fc8e84bf403e2c0600fba13871341b7b72cd",
      "width" : 640
    }, {
      "height" : 200,
      "url" : "https://i.scdn.co/image/cc8448fb85b94dbef16da09b23735d767ed89959",
      "width" : 200
    }, {
      "height" : 64,
      "url" : "https://i.scdn.co/image/fe490a4fcbda6a5f053ed5f67d9422257c8881ed",
      "width" : 64
    } ],
    "name" : "Courtney Barnett",
    "popularity" : 59,
    "type" : "artist",
    "uri" : "spotify:artist:4OOlG5eBXSkSAAEeKjJb5Y"
  }, {
    "external_urls" : {
      "spotify" : "https://open.spotify.com/artist/26T3LtbuGT1Fu9m0eRq5X3"
    },
    "followers" : {
      "href" : null,
      "total" : 693187
    },
    "genres" : [ "alternative rock", "folk-pop", "garage rock", "indie pop", "indie rock", "punk blues" ],
    "href" : "https://api.spotify.com/v1/artists/26T3LtbuGT1Fu9m0eRq5X3",
    "id" : "26T3LtbuGT1Fu9m0eRq5X3",
    "images" : [ {
      "height" : 640,
      "url" : "https://i.scdn.co/image/1c903e1c9fb2ffb682de31ad1f66eb8bc86a2b69",
      "width" : 640
    }, {
      "height" : 320,
      "url" : "https://i.scdn.co/image/5127be306c56508bc84462ae8b579fcdfcf80588",
      "width" : 320
    }, {
      "height" : 160,
      "url" : "https://i.scdn.co/image/dbf4b704bbf4b35488910fd7a73585f9f3bbc757",
      "width" : 160
    } ],
    "name" : "Cage The Elephant",
    "popularity" : 75,
    "type" : "artist",
    "uri" : "spotify:artist:26T3LtbuGT1Fu9m0eRq5X3"
  }, {
    "external_urls" : {
      "spotify" : "https://open.spotify.com/artist/2YKp8Odp8GGbAkVU60Yk2Y"
    },
    "followers" : {
      "href" : null,
      "total" : 72687
    },
    "genres" : [ "folk-pop", "indie folk", "indie pop", "indie rock", "la indie", "stomp and holler" ],
    "href" : "https://api.spotify.com/v1/artists/2YKp8Odp8GGbAkVU60Yk2Y",
    "id" : "2YKp8Odp8GGbAkVU60Yk2Y",
    "images" : [ {
      "height" : 640,
      "url" : "https://i.scdn.co/image/4cbcaf948f454f9ca2a799d5f96dbee214ffacf0",
      "width" : 640
    }, {
      "height" : 300,
      "url" : "https://i.scdn.co/image/b4abf76d1723bc1783052ebb914f94c1908946fe",
      "width" : 300
    }, {
      "height" : 64,
      "url" : "https://i.scdn.co/image/e930d0113b8ad08286c5a61f08d95d87136ab41c",
      "width" : 64
    } ],
    "name" : "Coconut Records",
    "popularity" : 53,
    "type" : "artist",
    "uri" : "spotify:artist:2YKp8Odp8GGbAkVU60Yk2Y"
  }, {
    "external_urls" : {
      "spotify" : "https://open.spotify.com/artist/3kVUvbeRdcrqQ3oHk5hPdx"
    },
    "followers" : {
      "href" : null,
      "total" : 454037
    },
    "genres" : [ "folk-pop", "indie folk", "indie pop", "indie poptimism", "indie rock", "indietronica", "la indie", "pop", "shimmer pop", "stomp and holler", "synthpop" ],
    "href" : "https://api.spotify.com/v1/artists/3kVUvbeRdcrqQ3oHk5hPdx",
    "id" : "3kVUvbeRdcrqQ3oHk5hPdx",
    "images" : [ {
      "height" : 640,
      "url" : "https://i.scdn.co/image/0763ebd8606dc0a33984b7901ebdd9966d79ff24",
      "width" : 640
    }, {
      "height" : 320,
      "url" : "https://i.scdn.co/image/9d6b9d1f5800063806d429bec4ad13794d548659",
      "width" : 320
    }, {
      "height" : 160,
      "url" : "https://i.scdn.co/image/6463aca37297e74b497fe04cdaa00c9b87a11492",
      "width" : 160
    } ],
    "name" : "Grouplove",
    "popularity" : 70,
    "type" : "artist",
    "uri" : "spotify:artist:3kVUvbeRdcrqQ3oHk5hPdx"
  }, {
    "external_urls" : {
      "spotify" : "https://open.spotify.com/artist/0Ou0138wEd8XWebhc4j7O0"
    },
    "followers" : {
      "href" : null,
      "total" : 117074
    },
    "genres" : [ "aussietronica", "australian alternative rock", "deep australian indie", "indie pop", "indie rock", "indietronica", "metropopolis", "perth indie", "shimmer pop" ],
    "href" : "https://api.spotify.com/v1/artists/0Ou0138wEd8XWebhc4j7O0",
    "id" : "0Ou0138wEd8XWebhc4j7O0",
    "images" : [ {
      "height" : 667,
      "url" : "https://i.scdn.co/image/ff9db3c64f6ac0084d2860f680ff4935ec11f140",
      "width" : 1000
    }, {
      "height" : 427,
      "url" : "https://i.scdn.co/image/a40ea52def34b0e575ffed5c066d8921961f5f8f",
      "width" : 640
    }, {
      "height" : 133,
      "url" : "https://i.scdn.co/image/f3448ff9f35962cc6154d01554a1831c2a524635",
      "width" : 200
    }, {
      "height" : 43,
      "url" : "https://i.scdn.co/image/7f8a79173caa688aee07b554337bc2b12a07cbda",
      "width" : 64
    } ],
    "name" : "San Cisco",
    "popularity" : 58,
    "type" : "artist",
    "uri" : "spotify:artist:0Ou0138wEd8XWebhc4j7O0"
  }, {
    "external_urls" : {
      "spotify" : "https://open.spotify.com/artist/0YrtvWJMgSdVrk3SfNjTbx"
    },
    "followers" : {
      "href" : null,
      "total" : 666435
    },
    "genres" : [ "alternative rock", "folk christmas", "folk-pop", "indie christmas", "indie folk", "indie pop", "indie rock", "indietronica", "lo-fi", "neo mellow", "pop rock", "stomp and holler" ],
    "href" : "https://api.spotify.com/v1/artists/0YrtvWJMgSdVrk3SfNjTbx",
    "id" : "0YrtvWJMgSdVrk3SfNjTbx",
    "images" : [ {
      "height" : 750,
      "url" : "https://i.scdn.co/image/01a40e648d67a09fb5b86241aac41bec33b9b809",
      "width" : 1000
    }, {
      "height" : 480,
      "url" : "https://i.scdn.co/image/eab58f291802ab64dcba15aa2e1402ded73d18b1",
      "width" : 640
    }, {
      "height" : 150,
      "url" : "https://i.scdn.co/image/3710cf81642eedda55728306d0e3bbefac879413",
      "width" : 200
    }, {
      "height" : 48,
      "url" : "https://i.scdn.co/image/8828739523c93eee9b3f315a77677314ce01d4bb",
      "width" : 64
    } ],
    "name" : "Death Cab for Cutie",
    "popularity" : 70,
    "type" : "artist",
    "uri" : "spotify:artist:0YrtvWJMgSdVrk3SfNjTbx"
  }, {
    "external_urls" : {
      "spotify" : "https://open.spotify.com/artist/5INjqkS1o8h1imAzPqGZBb"
    },
    "followers" : {
      "href" : null,
      "total" : 1057971
    },
    "genres" : [ "australian alternative rock", "indie pop", "indie rock", "indietronica", "neo-psychedelic", "psychedelic rock" ],
    "href" : "https://api.spotify.com/v1/artists/5INjqkS1o8h1imAzPqGZBb",
    "id" : "5INjqkS1o8h1imAzPqGZBb",
    "images" : [ {
      "height" : 666,
      "url" : "https://i.scdn.co/image/11ea8d229100fedf2a98418ea2b83c86aa11bd9e",
      "width" : 999
    }, {
      "height" : 427,
      "url" : "https://i.scdn.co/image/9ac0b3ef6b91d5e0e8e4cff06b734a5151f966e3",
      "width" : 640
    }, {
      "height" : 133,
      "url" : "https://i.scdn.co/image/935f8705fb0a21a14b87f12626c0223e5daf88bc",
      "width" : 200
    }, {
      "height" : 43,
      "url" : "https://i.scdn.co/image/dded51f1b0bf7a9981858e139d42dafa6b2a20e5",
      "width" : 64
    } ],
    "name" : "Tame Impala",
    "popularity" : 77,
    "type" : "artist",
    "uri" : "spotify:artist:5INjqkS1o8h1imAzPqGZBb"
  }, {
    "external_urls" : {
      "spotify" : "https://open.spotify.com/artist/7Ln80lUS6He07XvHI8qqHH"
    },
    "followers" : {
      "href" : null,
      "total" : 3408493
    },
    "genres" : [ "garage rock", "indie rock", "permanent wave", "sheffield indie" ],
    "href" : "https://api.spotify.com/v1/artists/7Ln80lUS6He07XvHI8qqHH",
    "id" : "7Ln80lUS6He07XvHI8qqHH",
    "images" : [ {
      "height" : 1333,
      "url" : "https://i.scdn.co/image/c488bf987b2f716a539a768a102855450345113d",
      "width" : 1000
    }, {
      "height" : 853,
      "url" : "https://i.scdn.co/image/b30c0e39cfa70b2124b9d0d24e83761ef48e5540",
      "width" : 640
    }, {
      "height" : 267,
      "url" : "https://i.scdn.co/image/e1f00ceabce8dd0480bad7e873993082d9ac3fe9",
      "width" : 200
    }, {
      "height" : 85,
      "url" : "https://i.scdn.co/image/eba02729ec372fd9954cafd3fd71950bb8fc385f",
      "width" : 64
    } ],
    "name" : "Arctic Monkeys",
    "popularity" : 84,
    "type" : "artist",
    "uri" : "spotify:artist:7Ln80lUS6He07XvHI8qqHH"
  }, {
    "external_urls" : {
      "spotify" : "https://open.spotify.com/artist/6CWTBjOJK75cTE8Xv8u1kj"
    },
    "followers" : {
      "href" : null,
      "total" : 357480
    },
    "genres" : [ "canadian indie", "canadian pop", "chamber pop", "folk christmas", "folk-pop", "freak folk", "indie christmas", "indie folk", "indie pop", "indie rock", "indietronica", "lilith", "pop rock", "slow core", "soul" ],
    "href" : "https://api.spotify.com/v1/artists/6CWTBjOJK75cTE8Xv8u1kj",
    "id" : "6CWTBjOJK75cTE8Xv8u1kj",
    "images" : [ {
      "height" : 667,
      "url" : "https://i.scdn.co/image/b7a890be29fd7efe56ab8cc22ae18d30f0cc3b2c",
      "width" : 1000
    }, {
      "height" : 427,
      "url" : "https://i.scdn.co/image/8f45d6b84cc23a303ccd35984be7fd1905266055",
      "width" : 640
    }, {
      "height" : 133,
      "url" : "https://i.scdn.co/image/60ed004ea8cf6c3ccf90f6ceba47d215218e9e75",
      "width" : 200
    }, {
      "height" : 43,
      "url" : "https://i.scdn.co/image/336830c07a13a1e670efe12ec1841afb5ef7de0e",
      "width" : 64
    } ],
    "name" : "Feist",
    "popularity" : 64,
    "type" : "artist",
    "uri" : "spotify:artist:6CWTBjOJK75cTE8Xv8u1kj"
  }, {
    "external_urls" : {
      "spotify" : "https://open.spotify.com/artist/6dgwEwnK0YtDfS9XhRwBTG"
    },
    "followers" : {
      "href" : null,
      "total" : 221248
    },
    "genres" : [ "alternative dance", "alternative rock", "chamber pop", "dance-punk", "folk-pop", "garage rock", "indie folk", "indie pop", "indie rock", "indietronica", "la indie", "neo-psychedelic", "new rave", "shimmer pop", "stomp and holler", "synthpop" ],
    "href" : "https://api.spotify.com/v1/artists/6dgwEwnK0YtDfS9XhRwBTG",
    "id" : "6dgwEwnK0YtDfS9XhRwBTG",
    "images" : [ {
      "height" : 667,
      "url" : "https://i.scdn.co/image/d885de66d6a51327f2ef5d7410fb18346cf4163e",
      "width" : 1000
    }, {
      "height" : 427,
      "url" : "https://i.scdn.co/image/99b1c56851bbe113f2e4032d9cb082f4689acc23",
      "width" : 640
    }, {
      "height" : 133,
      "url" : "https://i.scdn.co/image/e45cd92e93edc96ec177e1b2ab48683b7fe5ef6b",
      "width" : 200
    }, {
      "height" : 43,
      "url" : "https://i.scdn.co/image/6e78bcb4948563ed6afb44434a3022fae16c4097",
      "width" : 64
    } ],
    "name" : "Broken Bells",
    "popularity" : 62,
    "type" : "artist",
    "uri" : "spotify:artist:6dgwEwnK0YtDfS9XhRwBTG"
  }, {
    "external_urls" : {
      "spotify" : "https://open.spotify.com/artist/1xU878Z1QtBldR7ru9owdU"
    },
    "followers" : {
      "href" : null,
      "total" : 1031474
    },
    "genres" : [ "alternative dance", "indie pop", "indie rock", "indietronica", "new rave", "synthpop" ],
    "href" : "https://api.spotify.com/v1/artists/1xU878Z1QtBldR7ru9owdU",
    "id" : "1xU878Z1QtBldR7ru9owdU",
    "images" : [ {
      "height" : 1000,
      "url" : "https://i.scdn.co/image/67bf2e6f12ef3532d1be9678d63db80d9827339b",
      "width" : 1000
    }, {
      "height" : 640,
      "url" : "https://i.scdn.co/image/6f965403d80981520258d0d2c17b56d96ceb3dd1",
      "width" : 640
    }, {
      "height" : 200,
      "url" : "https://i.scdn.co/image/5d0b67506ce34853d78a0eb759f08a53557d0ffd",
      "width" : 200
    }, {
      "height" : 64,
      "url" : "https://i.scdn.co/image/10985fefabe412e4b0379468185867a40688c6ce",
      "width" : 64
    } ],
    "name" : "Phoenix",
    "popularity" : 69,
    "type" : "artist",
    "uri" : "spotify:artist:1xU878Z1QtBldR7ru9owdU"
  }, {
    "external_urls" : {
      "spotify" : "https://open.spotify.com/artist/63MQldklfxkjYDoUE4Tppz"
    },
    "followers" : {
      "href" : null,
      "total" : 1264977
    },
    "genres" : [ "alternative dance", "electronic", "indie pop", "indietronica", "metropopolis", "synthpop" ],
    "href" : "https://api.spotify.com/v1/artists/63MQldklfxkjYDoUE4Tppz",
    "id" : "63MQldklfxkjYDoUE4Tppz",
    "images" : [ {
      "height" : 1000,
      "url" : "https://i.scdn.co/image/0f1019493a4236ded02508ef6c6d036f0a33d837",
      "width" : 1000
    }, {
      "height" : 640,
      "url" : "https://i.scdn.co/image/b4bfa061994cbdf7512e779b69c4ecb62c9151b2",
      "width" : 640
    }, {
      "height" : 200,
      "url" : "https://i.scdn.co/image/f00345ea971d4a781fe1f5d2b62be8fd067f5e11",
      "width" : 200
    }, {
      "height" : 64,
      "url" : "https://i.scdn.co/image/de5d6115c6a13151f4e030e93c1149421ab21a60",
      "width" : 64
    } ],
    "name" : "M83",
    "popularity" : 73,
    "type" : "artist",
    "uri" : "spotify:artist:63MQldklfxkjYDoUE4Tppz"
  }, {
    "external_urls" : {
      "spotify" : "https://open.spotify.com/artist/2xaAOVImG2O6lURwqperlD"
    },
    "followers" : {
      "href" : null,
      "total" : 323718
    },
    "genres" : [ "indie rock", "stomp pop", "welsh rock" ],
    "href" : "https://api.spotify.com/v1/artists/2xaAOVImG2O6lURwqperlD",
    "id" : "2xaAOVImG2O6lURwqperlD",
    "images" : [ {
      "height" : 1000,
      "url" : "https://i.scdn.co/image/c3e69a618f46ade3ce68dfd4e1b573c3ca5d7f33",
      "width" : 1000
    }, {
      "height" : 640,
      "url" : "https://i.scdn.co/image/9c9df790c9675b3f0559843a4963e9bd4c74cac0",
      "width" : 640
    }, {
      "height" : 200,
      "url" : "https://i.scdn.co/image/8ca65c873068b4fd59799d2dce1fd4e8024b263a",
      "width" : 200
    }, {
      "height" : 64,
      "url" : "https://i.scdn.co/image/6be0d68e94f18320d8d86285cb1bb46f60d7c03f",
      "width" : 64
    } ],
    "name" : "Catfish and the Bottlemen",
    "popularity" : 72,
    "type" : "artist",
    "uri" : "spotify:artist:2xaAOVImG2O6lURwqperlD"
  }, {
    "external_urls" : {
      "spotify" : "https://open.spotify.com/artist/2ARO60gI5do88ho6azmzab"
    },
    "followers" : {
      "href" : null,
      "total" : 154442
    },
    "genres" : [ "alternative dance", "dance-punk", "garage rock", "indie pop", "indie rock", "indietronica", "neo-psychedelic", "new rave", "shimmer pop" ],
    "href" : "https://api.spotify.com/v1/artists/2ARO60gI5do88ho6azmzab",
    "id" : "2ARO60gI5do88ho6azmzab",
    "images" : [ {
      "height" : 1000,
      "url" : "https://i.scdn.co/image/ab9e0fd10be1e1dad0049eb1ed86f3f67cb70bdd",
      "width" : 1000
    }, {
      "height" : 640,
      "url" : "https://i.scdn.co/image/6ea6136f05dfb8309a81d37869f7c58e0bc28910",
      "width" : 640
    }, {
      "height" : 200,
      "url" : "https://i.scdn.co/image/cf96a44e29e4c3419e395179d75a0c157ea5c818",
      "width" : 200
    }, {
      "height" : 64,
      "url" : "https://i.scdn.co/image/4d750a651d1700096315580564ffa97a538204ff",
      "width" : 64
    } ],
    "name" : "Django Django",
    "popularity" : 54,
    "type" : "artist",
    "uri" : "spotify:artist:2ARO60gI5do88ho6azmzab"
  }, {
    "external_urls" : {
      "spotify" : "https://open.spotify.com/artist/77SW9BnxLY8rJ0RciFqkHh"
    },
    "followers" : {
      "href" : null,
      "total" : 1073338
    },
    "genres" : [ "indie pop", "indietronica", "pop", "shimmer pop" ],
    "href" : "https://api.spotify.com/v1/artists/77SW9BnxLY8rJ0RciFqkHh",
    "id" : "77SW9BnxLY8rJ0RciFqkHh",
    "images" : [ {
      "height" : 1000,
      "url" : "https://i.scdn.co/image/b89a03080133cc03cbb4e6e783f01804c1f3f6bd",
      "width" : 1000
    }, {
      "height" : 640,
      "url" : "https://i.scdn.co/image/dc71e3b138c8cf49d63d0a39db4ff0d48640fe60",
      "width" : 640
    }, {
      "height" : 200,
      "url" : "https://i.scdn.co/image/298a65ebcaeaef2d83cc0c5519c881169ca55ddb",
      "width" : 200
    }, {
      "height" : 64,
      "url" : "https://i.scdn.co/image/ee44cdddb1d0639561576cbb4b84daf4b7179622",
      "width" : 64
    } ],
    "name" : "The Neighbourhood",
    "popularity" : 77,
    "type" : "artist",
    "uri" : "spotify:artist:77SW9BnxLY8rJ0RciFqkHh"
  }, {
    "external_urls" : {
      "spotify" : "https://open.spotify.com/artist/4j56EQDQu5XnL7R3E9iFJT"
    },
    "followers" : {
      "href" : null,
      "total" : 608646
    },
    "genres" : [ "indie folk", "indie pop", "indie poptimism", "indie rock", "indietronica", "la indie", "neo mellow", "shimmer pop", "stomp and holler" ],
    "href" : "https://api.spotify.com/v1/artists/4j56EQDQu5XnL7R3E9iFJT",
    "id" : "4j56EQDQu5XnL7R3E9iFJT",
    "images" : [ {
      "height" : 640,
      "url" : "https://i.scdn.co/image/8037a2ded93ccf5886931131816745e653854dff",
      "width" : 640
    }, {
      "height" : 320,
      "url" : "https://i.scdn.co/image/4c71f45bf5b040de918ada757f3706e41aa33b52",
      "width" : 320
    }, {
      "height" : 160,
      "url" : "https://i.scdn.co/image/ea2b51f3c0dadef45cccb949342f1cd302e6cc0e",
      "width" : 160
    } ],
    "name" : "Young the Giant",
    "popularity" : 71,
    "type" : "artist",
    "uri" : "spotify:artist:4j56EQDQu5XnL7R3E9iFJT"
  }, {
    "external_urls" : {
      "spotify" : "https://open.spotify.com/artist/6FQqZYVfTNQ1pCqfkwVFEa"
    },
    "followers" : {
      "href" : null,
      "total" : 507091
    },
    "genres" : [ "alternative dance", "dance-punk", "garage rock", "indie pop", "indie rock", "indietronica", "math pop", "new rave", "shimmer pop" ],
    "href" : "https://api.spotify.com/v1/artists/6FQqZYVfTNQ1pCqfkwVFEa",
    "id" : "6FQqZYVfTNQ1pCqfkwVFEa",
    "images" : [ {
      "height" : 640,
      "url" : "https://i.scdn.co/image/ef1f6a816b4895ba7ad2c7c569fc7aca36123d56",
      "width" : 640
    }, {
      "height" : 320,
      "url" : "https://i.scdn.co/image/e8155696167f87c2ff840c706bd9c88ffa190068",
      "width" : 320
    }, {
      "height" : 160,
      "url" : "https://i.scdn.co/image/f9bad1aa22867c100608002037e43340f16e5196",
      "width" : 160
    } ],
    "name" : "Foals",
    "popularity" : 71,
    "type" : "artist",
    "uri" : "spotify:artist:6FQqZYVfTNQ1pCqfkwVFEa"
  }, {
    "external_urls" : {
      "spotify" : "https://open.spotify.com/artist/536BYVgOnRky0xjsPT96zl"
    },
    "followers" : {
      "href" : null,
      "total" : 1123368
    },
    "genres" : [ "alternative dance", "folk-pop", "indie pop", "indie rock", "indietronica", "irish rock", "pop", "synthpop" ],
    "href" : "https://api.spotify.com/v1/artists/536BYVgOnRky0xjsPT96zl",
    "id" : "536BYVgOnRky0xjsPT96zl",
    "images" : [ {
      "height" : 640,
      "url" : "https://i.scdn.co/image/82384b3804078c69e0332e8f0ffdfbe1235199f9",
      "width" : 640
    }, {
      "height" : 320,
      "url" : "https://i.scdn.co/image/f8192c2ffd87196ace969a6141f13c6799a163c1",
      "width" : 320
    }, {
      "height" : 160,
      "url" : "https://i.scdn.co/image/f6be58fac7b0ed4552f0277e050f87a20615beff",
      "width" : 160
    } ],
    "name" : "Two Door Cinema Club",
    "popularity" : 76,
    "type" : "artist",
    "uri" : "spotify:artist:536BYVgOnRky0xjsPT96zl"
  }, {
    "external_urls" : {
      "spotify" : "https://open.spotify.com/artist/7gjAu1qr5C2grXeQFFOGeh"
    },
    "followers" : {
      "href" : null,
      "total" : 716794
    },
    "genres" : [ "alternative dance", "folk-pop", "indie pop", "indie rock", "indietronica", "new rave", "shimmer pop", "synthpop" ],
    "href" : "https://api.spotify.com/v1/artists/7gjAu1qr5C2grXeQFFOGeh",
    "id" : "7gjAu1qr5C2grXeQFFOGeh",
    "images" : [ {
      "height" : 1000,
      "url" : "https://i.scdn.co/image/9485f6e49e69b1fc97f7403a1f19d61386bc02be",
      "width" : 1000
    }, {
      "height" : 640,
      "url" : "https://i.scdn.co/image/57ba374417349aad6604f1001613f41bf1500f00",
      "width" : 640
    }, {
      "height" : 200,
      "url" : "https://i.scdn.co/image/16a732c48e51479fbc5687d6eac78504c80dcbdd",
      "width" : 200
    }, {
      "height" : 64,
      "url" : "https://i.scdn.co/image/f3ab893d88643c1a3acb0536d05f58687f6c5f85",
      "width" : 64
    } ],
    "name" : "Passion Pit",
    "popularity" : 69,
    "type" : "artist",
    "uri" : "spotify:artist:7gjAu1qr5C2grXeQFFOGeh"
  } ],
  "total" : 50,
  "limit" : 20,
  "offset" : 0,
  "href" : "https://api.spotify.com/v1/me/top/artists",
  "previous" : null,
  "next" : "https://api.spotify.com/v1/me/top/artists?limit=20&offset=20"
}
